<svg xmlns="http://www.w3.org/2000/svg" width="118" height="31" viewBox="0 0 118 31">
  <text id="Eggradients" transform="translate(0 22)" fill="#6c3bc9" font-size="20" font-family="CarterOne, Carter One"><tspan x="0" y="0">Eggradients</tspan></text>
</svg>
